\relax 
\providecommand\hyper@newdestlabel[2]{}
\providecommand*\new@tpo@label[2]{}
\providecommand\HyperFirstAtBeginDocument{\AtBeginDocument}
\HyperFirstAtBeginDocument{\ifx\hyper@anchor\@undefined
\global\let\oldcontentsline\contentsline
\gdef\contentsline#1#2#3#4{\oldcontentsline{#1}{#2}{#3}}
\global\let\oldnewlabel\newlabel
\gdef\newlabel#1#2{\newlabelxx{#1}#2}
\gdef\newlabelxx#1#2#3#4#5#6{\oldnewlabel{#1}{{#2}{#3}}}
\AtEndDocument{\ifx\hyper@anchor\@undefined
\let\contentsline\oldcontentsline
\let\newlabel\oldnewlabel
\fi}
\fi}
\global\let\hyper@last\relax 
\gdef\HyperFirstAtBeginDocument#1{#1}
\providecommand\HyField@AuxAddToFields[1]{}
\providecommand\HyField@AuxAddToCoFields[2]{}
\providecommand\BKM@entry[2]{}
\providecommand\babel@aux[2]{}
\@nameuse{bbl@beforestart}
\catcode `"\active 
\babel@aux{english}{}
\babel@aux{english}{}
\babel@aux{ngerman}{}
\babel@aux{english}{}
\babel@aux{english}{}
\BKM@entry{id=1,dest={636861707465722E31},srcline={1}}{496E74726F64756374696F6E}
\BKM@entry{id=2,dest={73656374696F6E2E312E31},srcline={4}}{4D6F7469766174696F6E}
\BKM@entry{id=3,dest={73656374696F6E2E312E32},srcline={10}}{50726576696F757320576F726B}
\citation{IEEEexample:berti}
\citation{Gleirscher2014}
\citation{bertiPaper}
\citation{IEEEexample:berti}
\citation{Gleirscher2014}
\citation{bertiPaper}
\citation{bertiPaper}
\citation{bertiPaper}
\@writefile{toc}{\contentsline {chapter}{\numberline {1}Introduction}{1}{chapter.1}\protected@file@percent }
\@writefile{lof}{\addvspace {10\p@ }}
\@writefile{lot}{\addvspace {10\p@ }}
\@writefile{lol}{\addvspace {10\p@ }}
\newlabel{sec:intro}{{1}{1}{Introduction}{chapter.1}{}}
\@writefile{toc}{\contentsline {section}{\numberline {1.1}Motivation}{1}{section.1.1}\protected@file@percent }
\newlabel{sec:intro_motivation}{{1.1}{1}{Motivation}{section.1.1}{}}
\@writefile{toc}{\contentsline {section}{\numberline {1.2}Previous Work}{1}{section.1.2}\protected@file@percent }
\newlabel{sec:intro_previouswork}{{1.2}{1}{Previous Work}{section.1.2}{}}
\BKM@entry{id=4,dest={73656374696F6E2E312E33},srcline={19}}{41696D206F662074686520576F726B}
\citation{Khler2018}
\BKM@entry{id=5,dest={73656374696F6E2E312E34},srcline={31}}{537472756374757265206F6620446F63756D656E74}
\@writefile{toc}{\contentsline {section}{\numberline {1.3}Aim of the Work}{2}{section.1.3}\protected@file@percent }
\newlabel{sec:intro_aimofwork}{{1.3}{2}{Aim of the Work}{section.1.3}{}}
\@writefile{toc}{\contentsline {section}{\numberline {1.4}Structure of Document}{2}{section.1.4}\protected@file@percent }
\newlabel{sec:intro_structure}{{1.4}{2}{Structure of Document}{section.1.4}{}}
\BKM@entry{id=6,dest={636861707465722E32},srcline={1}}{4578706572696D656E742065717569706D656E7420616E64206D6174657269616C73}
\BKM@entry{id=7,dest={73656374696F6E2E322E31},srcline={4}}{4176614368757465205365747570}
\citation{GerritGunther}
\citation{GerritGunther}
\@writefile{toc}{\contentsline {chapter}{\numberline {2}Experiment equipment and materials}{4}{chapter.2}\protected@file@percent }
\@writefile{lof}{\addvspace {10\p@ }}
\@writefile{lot}{\addvspace {10\p@ }}
\@writefile{lol}{\addvspace {10\p@ }}
\newlabel{sec:setupava}{{2}{4}{Experiment equipment and materials}{chapter.2}{}}
\@writefile{toc}{\contentsline {section}{\numberline {2.1}AvaChute Setup}{4}{section.2.1}\protected@file@percent }
\newlabel{sec:setup}{{2.1}{4}{AvaChute Setup}{section.2.1}{}}
\@writefile{lof}{\contentsline {figure}{\numberline {2.1}{\ignorespaces Avalanche Chute setup}}{4}{figure.caption.8}\protected@file@percent }
\providecommand*\caption@xref[2]{\@setref\relax\@undefined{#1}}
\newlabel{fig:avachutecomp}{{2.1}{4}{Avalanche Chute setup}{figure.caption.8}{}}
\@writefile{lot}{\contentsline {table}{\numberline {2.1}{\ignorespaces Measurement system components}}{5}{table.caption.9}\protected@file@percent }
\newlabel{tab:sensors}{{2.1}{5}{Measurement system components}{table.caption.9}{}}
\@writefile{lot}{\contentsline {table}{\numberline {2.2}{\ignorespaces Control Box components}}{5}{table.caption.10}\protected@file@percent }
\newlabel{tab:setupControlBox}{{2.2}{5}{Control Box components}{table.caption.10}{}}
\BKM@entry{id=8,dest={73656374696F6E2E322E32},srcline={79}}{44617461204163717569736974696F6E}
\@writefile{lof}{\contentsline {figure}{\numberline {2.2}{\ignorespaces Schematic drawing of the chute with the relevant dimensions.\relax }}{6}{figure.caption.11}\protected@file@percent }
\newlabel{fig:avachuteDimens}{{2.2}{6}{Schematic drawing of the chute with the relevant dimensions.\relax }{figure.caption.11}{}}
\@writefile{lof}{\contentsline {figure}{\numberline {2.3}{\ignorespaces Control box where the voltage supply and sensor connection is wired.\relax }}{6}{figure.caption.12}\protected@file@percent }
\newlabel{fig:setupcontrolBox}{{2.3}{6}{Control box where the voltage supply and sensor connection is wired.\relax }{figure.caption.12}{}}
\@writefile{toc}{\contentsline {section}{\numberline {2.2}Data Acquisition}{6}{section.2.2}\protected@file@percent }
\newlabel{sec:daq}{{2.2}{6}{Data Acquisition}{section.2.2}{}}
\BKM@entry{id=9,dest={73656374696F6E2E322E33},srcline={87}}{4368757465204C696768746E696E67}
\citation{QLCp}
\BKM@entry{id=10,dest={73656374696F6E2E322E34},srcline={101}}{4772616E756C61746520496E6C657420616E64204772616E756C6172204D6174657269616C}
\@writefile{toc}{\contentsline {section}{\numberline {2.3}Chute Lightning}{7}{section.2.3}\protected@file@percent }
\newlabel{sec:lightning}{{2.3}{7}{Chute Lightning}{section.2.3}{}}
\@writefile{lof}{\contentsline {figure}{\numberline {2.4}{\ignorespaces Pulsed Light timing scheme\relax }}{7}{figure.caption.13}\protected@file@percent }
\newlabel{fig:timingScheme}{{2.4}{7}{Pulsed Light timing scheme\relax }{figure.caption.13}{}}
\citation{IEEEexample:berti}
\BKM@entry{id=11,dest={73656374696F6E2E322E35},srcline={116}}{5265666572656E6365204F626A65637473}
\@writefile{toc}{\contentsline {section}{\numberline {2.4}Granulate Inlet and Granular Material}{8}{section.2.4}\protected@file@percent }
\newlabel{sec:granulate}{{2.4}{8}{Granulate Inlet and Granular Material}{section.2.4}{}}
\@writefile{lof}{\contentsline {figure}{\numberline {2.5}{\ignorespaces Granular media which is used for the experiments.\relax }}{8}{figure.caption.14}\protected@file@percent }
\newlabel{fig:granulate}{{2.5}{8}{Granular media which is used for the experiments.\relax }{figure.caption.14}{}}
\@writefile{toc}{\contentsline {section}{\numberline {2.5}Reference Objects}{8}{section.2.5}\protected@file@percent }
\newlabel{sec:refObjects}{{2.5}{8}{Reference Objects}{section.2.5}{}}
\@writefile{lot}{\contentsline {table}{\numberline {2.3}{\ignorespaces Reference Objects}}{9}{table.caption.15}\protected@file@percent }
\newlabel{tab:refObjects}{{2.3}{9}{Reference Objects}{table.caption.15}{}}
\@writefile{lof}{\contentsline {figure}{\numberline {2.6}{\ignorespaces Reference objects for SLI}}{9}{figure.caption.16}\protected@file@percent }
\newlabel{fig:measTree}{{2.6}{9}{Reference objects for SLI}{figure.caption.16}{}}
\BKM@entry{id=12,dest={636861707465722E33},srcline={1}}{4D6574686F647320616E64204578706572696D656E7473}
\citation{IEEEexample:berti}
\citation{Gleirscher2014}
\citation{bertiPaper}
\BKM@entry{id=13,dest={73656374696F6E2E332E31},srcline={13}}{506F696E74204C61736572204D6561737572656D656E7473}
\@writefile{toc}{\contentsline {chapter}{\numberline {3}Methods and Experiments}{10}{chapter.3}\protected@file@percent }
\@writefile{lof}{\addvspace {10\p@ }}
\@writefile{lot}{\addvspace {10\p@ }}
\@writefile{lol}{\addvspace {10\p@ }}
\newlabel{sec:Methods}{{3}{10}{Methods and Experiments}{chapter.3}{}}
\@writefile{lof}{\contentsline {figure}{\numberline {3.1}{\ignorespaces Measurement System AvaChute\relax }}{10}{figure.caption.17}\protected@file@percent }
\newlabel{fig:measTree}{{3.1}{10}{Measurement System AvaChute\relax }{figure.caption.17}{}}
\@writefile{toc}{\contentsline {section}{\numberline {3.1}Point Laser Measurements}{10}{section.3.1}\protected@file@percent }
\newlabel{sec:methballuffs}{{3.1}{10}{Point Laser Measurements}{section.3.1}{}}
\BKM@entry{id=14,dest={73656374696F6E2E332E32},srcline={23}}{4F70746963616C205370656564204D6561737572656D656E742053656E736F7273}
\citation{GerritGunther}
\citation{GerritGunther}
\BKM@entry{id=15,dest={73656374696F6E2E332E33},srcline={51}}{43616D65726120616E6420496D6167652043616C6962726174696F6E}
\citation{Zhang2000}
\@writefile{toc}{\contentsline {section}{\numberline {3.2}Optical Speed Measurement Sensors}{11}{section.3.2}\protected@file@percent }
\newlabel{sec:methOSM}{{3.2}{11}{Optical Speed Measurement Sensors}{section.3.2}{}}
\newlabel{fig:OSMhousing}{{3.2a}{11}{OSM sensor housing: The front of the aluminum tube is covered with glass and the cable inlet is at the back.\relax }{figure.caption.18}{}}
\newlabel{sub@fig:OSMhousing}{{a}{11}{OSM sensor housing: The front of the aluminum tube is covered with glass and the cable inlet is at the back.\relax }{figure.caption.18}{}}
\newlabel{fig:OSMinside}{{3.2b}{11}{Electronics inside the housing of the OSM. Each channel, A and B, consist of an UV-LED and a photo diode.\relax }{figure.caption.18}{}}
\newlabel{sub@fig:OSMinside}{{b}{11}{Electronics inside the housing of the OSM. Each channel, A and B, consist of an UV-LED and a photo diode.\relax }{figure.caption.18}{}}
\@writefile{lof}{\contentsline {figure}{\numberline {3.2}{\ignorespaces Overview of OSM sensor}}{11}{figure.caption.18}\protected@file@percent }
\newlabel{fig:OSM}{{3.2}{11}{Overview of OSM sensor}{figure.caption.18}{}}
\@writefile{toc}{\contentsline {section}{\numberline {3.3}Camera and Image Calibration}{11}{section.3.3}\protected@file@percent }
\newlabel{sec:methCalibrateImages}{{3.3}{11}{Camera and Image Calibration}{section.3.3}{}}
\citation{Zhang2000}
\citation{Zhang2000}
\citation{Zhang2000}
\citation{website_camcalib}
\citation{opencv_library}
\citation{Garrido_Jurado_2014}
\@writefile{lof}{\contentsline {figure}{\numberline {3.3}{\ignorespaces Detected chessboard corners}}{13}{figure.caption.19}\protected@file@percent }
\newlabel{fig:Chessboardcorners}{{3.3}{13}{Detected chessboard corners}{figure.caption.19}{}}
\@writefile{lof}{\contentsline {figure}{\numberline {3.4}{\ignorespaces ArUco Marker\relax }}{13}{figure.caption.20}\protected@file@percent }
\newlabel{fig:ArUcoMarker}{{3.4}{13}{ArUco Marker\relax }{figure.caption.20}{}}
\citation{opencv_library}
\@writefile{lof}{\contentsline {figure}{\numberline {3.5}{\ignorespaces Position and IDs of ArUco markers.}}{14}{figure.caption.21}\protected@file@percent }
\newlabel{fig:methAruco}{{3.5}{14}{Position and IDs of ArUco markers}{figure.caption.21}{}}
\newlabel{eq:meanChessCorners}{{3.6}{14}{Camera and Image Calibration}{equation.3.3.6}{}}
\BKM@entry{id=16,dest={73656374696F6E2E332E34},srcline={135}}{4F70746963616C20466C6F77205C284F465C29}
\citation{Farnebackfastandaccurate}
\citation{Smiatacz2012}
\@writefile{lof}{\contentsline {figure}{\numberline {3.6}{\ignorespaces Camera and Image Calibration Flow chart\relax }}{15}{figure.caption.22}\protected@file@percent }
\newlabel{fig:imageCalib}{{3.6}{15}{Camera and Image Calibration Flow chart\relax }{figure.caption.22}{}}
\citation{Farneback.1999}
\citation{Farnebackfastandaccurate}
\citation{Farnebackfastandaccurate}
\citation{Farneback.1999}
\citation{Gunnar}
\citation{FarnebackConferencePaper}
\citation{opencv_library}
\citation{opencv_library}
\citation{Gunnar}
\citation{Gunnar}
\citation{opencv_library}
\citation{Bai2018}
\citation{opencv_library}
\citation{Gunnar}
\citation{Gunnar}
\citation{opencv_library}
\@writefile{toc}{\contentsline {section}{\numberline {3.4}Optical Flow (OF)}{16}{section.3.4}\protected@file@percent }
\newlabel{sec:methOpticalFlow}{{3.4}{16}{Optical Flow (OF)}{section.3.4}{}}
\BKM@entry{id=17,dest={73656374696F6E2E332E35},srcline={176}}{53747275637475726564204C6967687420496C6C756D696E6174696F6E205C28534C495C29}
\citation{wagh_panse_apte_2015}
\@writefile{toc}{\contentsline {section}{\numberline {3.5}Structured Light Illumination (SLI)}{17}{section.3.5}\protected@file@percent }
\newlabel{sec:methsti}{{3.5}{17}{Structured Light Illumination (SLI)}{section.3.5}{}}
\citation{canny1986computational}
\citation{harris2020array}
\citation{Rashmi2013}
\@writefile{lof}{\contentsline {figure}{\numberline {3.7}{\ignorespaces Principle structured light illumination\relax }}{18}{figure.caption.23}\protected@file@percent }
\newlabel{fig:prinzipSTI}{{3.7}{18}{Principle structured light illumination\relax }{figure.caption.23}{}}
\BKM@entry{id=18,dest={73656374696F6E2E332E36},srcline={206}}{446174612053746F72616765}
\BKM@entry{id=19,dest={73656374696F6E2E332E37},srcline={218}}{4578706572696D656E742053657474696E6773}
\@writefile{toc}{\contentsline {section}{\numberline {3.6}Data Storage}{19}{section.3.6}\protected@file@percent }
\newlabel{sec:methDataStorage}{{3.6}{19}{Data Storage}{section.3.6}{}}
\@writefile{lof}{\contentsline {figure}{\numberline {3.8}{\ignorespaces Data storage scheme}}{19}{figure.caption.24}\protected@file@percent }
\newlabel{fig:dataStorage}{{3.8}{19}{Data storage scheme}{figure.caption.24}{}}
\@writefile{toc}{\contentsline {section}{\numberline {3.7}Experiment Settings}{19}{section.3.7}\protected@file@percent }
\newlabel{sec:experiments}{{3.7}{19}{Experiment Settings}{section.3.7}{}}
\newlabel{tab:experiments}{{3.1}{20}{}{table.caption.25}{}}
\@writefile{lot}{\contentsline {table}{\numberline {3.2}{\ignorespaces Input parameter of optical flow algorithm}}{20}{table.caption.26}\protected@file@percent }
\newlabel{tab:parameterOF}{{3.2}{20}{Input parameter of optical flow algorithm}{table.caption.26}{}}
\BKM@entry{id=20,dest={636861707465722E34},srcline={1}}{526573756C7473}
\BKM@entry{id=21,dest={73656374696F6E2E342E31},srcline={6}}{4F534D207369676E616C73}
\@writefile{toc}{\contentsline {chapter}{\numberline {4}Results}{21}{chapter.4}\protected@file@percent }
\@writefile{lof}{\addvspace {10\p@ }}
\@writefile{lot}{\addvspace {10\p@ }}
\@writefile{lol}{\addvspace {10\p@ }}
\newlabel{sec:results}{{4}{21}{Results}{chapter.4}{}}
\@writefile{toc}{\contentsline {section}{\numberline {4.1}OSM signals}{21}{section.4.1}\protected@file@percent }
\newlabel{sec:resOSM}{{4.1}{21}{OSM signals}{section.4.1}{}}
\@writefile{lof}{\contentsline {figure}{\numberline {4.1}{\ignorespaces Analogue signal of OSM 1 with pulsed green light (Experiment setup 1).}}{21}{figure.caption.27}\protected@file@percent }
\newlabel{fig:resOSMPulsedGreen}{{4.1}{21}{Analogue signal of OSM 1 with pulsed green light (Experiment setup 1)}{figure.caption.27}{}}
\citation{GerritGunther}
\@writefile{lof}{\contentsline {figure}{\numberline {4.2}{\ignorespaces Analogue signal of OSM 1 with pulsed blue light (Experiment setup 2).}}{22}{figure.caption.28}\protected@file@percent }
\newlabel{fig:resOSMPulsedBlue}{{4.2}{22}{Analogue signal of OSM 1 with pulsed blue light (Experiment setup 2)}{figure.caption.28}{}}
\BKM@entry{id=22,dest={73656374696F6E2E342E32},srcline={48}}{4F70746963616C20466C6F7720506172616D65746572205374756479}
\@writefile{lof}{\contentsline {figure}{\numberline {4.3}{\ignorespaces Analogue signal of OSM 1 with pulsed RGBW light (Experiment setup 4).}}{23}{figure.caption.29}\protected@file@percent }
\newlabel{fig:resOSMPulsedRGBW}{{4.3}{23}{Analogue signal of OSM 1 with pulsed RGBW light (Experiment setup 4)}{figure.caption.29}{}}
\@writefile{lof}{\contentsline {figure}{\numberline {4.4}{\ignorespaces Analogue signal of OSM 1 with RGBW light (Experiment setup 5).}}{23}{figure.caption.30}\protected@file@percent }
\newlabel{fig:resOSMRGBW}{{4.4}{23}{Analogue signal of OSM 1 with RGBW light (Experiment setup 5)}{figure.caption.30}{}}
\BKM@entry{id=23,dest={73656374696F6E2E342E33},srcline={107}}{56656C6F6369747920426F756E64617279}
\@writefile{toc}{\contentsline {section}{\numberline {4.2}Optical Flow Parameter Study}{24}{section.4.2}\protected@file@percent }
\newlabel{sec:resParamStudy}{{4.2}{24}{Optical Flow Parameter Study}{section.4.2}{}}
\@writefile{lof}{\contentsline {figure}{\numberline {4.5}{\ignorespaces Parameter study for velocity calculation}}{24}{figure.caption.31}\protected@file@percent }
\newlabel{fig:resParamStudy}{{4.5}{24}{Parameter study for velocity calculation}{figure.caption.31}{}}
\@writefile{toc}{\contentsline {section}{\numberline {4.3}Velocity Boundary}{25}{section.4.3}\protected@file@percent }
\newlabel{sec:resmaxVel}{{4.3}{25}{Velocity Boundary}{section.4.3}{}}
\newlabel{eq:vmax}{{4.1}{25}{Velocity Boundary}{equation.4.3.1}{}}
\BKM@entry{id=24,dest={73656374696F6E2E342E34},srcline={127}}{56656C6F63697479204669656C64}
\@writefile{lof}{\contentsline {figure}{\numberline {4.6}{\ignorespaces Velocity boundary of OF algorithm}}{26}{figure.caption.32}\protected@file@percent }
\newlabel{fig:resMaxVel}{{4.6}{26}{Velocity boundary of OF algorithm}{figure.caption.32}{}}
\@writefile{toc}{\contentsline {section}{\numberline {4.4}Velocity Field}{26}{section.4.4}\protected@file@percent }
\newlabel{sec:resvelProfile}{{4.4}{26}{Velocity Field}{section.4.4}{}}
\@writefile{lof}{\contentsline {figure}{\numberline {4.7}{\ignorespaces 2D Optical Flow}}{27}{figure.caption.33}\protected@file@percent }
\newlabel{fig:2DvelfieldPulsedLight}{{4.7}{27}{2D Optical Flow}{figure.caption.33}{}}
\@writefile{lof}{\contentsline {figure}{\numberline {4.8}{\ignorespaces Velocity profile of point (650, 815).}}{28}{figure.caption.34}\protected@file@percent }
\newlabel{fig:velProfileSteadyLight}{{4.8}{28}{Velocity profile of point (650, 815)}{figure.caption.34}{}}
\BKM@entry{id=25,dest={73656374696F6E2E342E35},srcline={164}}{4465707468204D6561737572656D656E7473}
\@writefile{lof}{\contentsline {figure}{\numberline {4.9}{\ignorespaces Analog signals of OSM 1}}{29}{figure.caption.35}\protected@file@percent }
\newlabel{fig:analogSignalOSM}{{4.9}{29}{Analog signals of OSM 1}{figure.caption.35}{}}
\@writefile{toc}{\contentsline {section}{\numberline {4.5}Depth Measurements}{29}{section.4.5}\protected@file@percent }
\newlabel{sec:resheightResults}{{4.5}{29}{Depth Measurements}{section.4.5}{}}
\@writefile{lof}{\contentsline {figure}{\numberline {4.10}{\ignorespaces SLI measurements with Reference objects and Granulate}}{30}{figure.caption.36}\protected@file@percent }
\newlabel{fig:laserAppear}{{4.10}{30}{SLI measurements with Reference objects and Granulate}{figure.caption.36}{}}
\@writefile{lof}{\contentsline {figure}{\numberline {4.11}{\ignorespaces Comparison of SLI methods.}}{31}{figure.caption.37}\protected@file@percent }
\newlabel{fig:stiResultObjects}{{4.11}{31}{Comparison of SLI methods}{figure.caption.37}{}}
\@writefile{lof}{\contentsline {figure}{\numberline {4.12}{\ignorespaces Laser Appearance}}{32}{figure.caption.38}\protected@file@percent }
\newlabel{fig:laserAppear20mW100mW}{{4.12}{32}{Laser Appearance}{figure.caption.38}{}}
\@writefile{lof}{\contentsline {figure}{\numberline {4.13}{\ignorespaces SLI Laser Comparison and Depth calculation}}{33}{figure.caption.39}\protected@file@percent }
\newlabel{fig:twoLaserStd}{{4.13}{33}{SLI Laser Comparison and Depth calculation}{figure.caption.39}{}}
\BKM@entry{id=26,dest={73656374696F6E2E342E36},srcline={231}}{4368757465204F7363696C6C6174696F6E73}
\@writefile{lof}{\contentsline {figure}{\numberline {4.14}{\ignorespaces Height information of Balluff laser sensor and \SI {100}{\milli \watt } line laser.}}{34}{figure.caption.40}\protected@file@percent }
\newlabel{fig:resBalluffLineLaser}{{4.14}{34}{Height information of Balluff laser sensor and \SI {100}{\milli \watt } line laser}{figure.caption.40}{}}
\@writefile{toc}{\contentsline {section}{\numberline {4.6}Chute Oscillations}{34}{section.4.6}\protected@file@percent }
\newlabel{sec:resChuteosc}{{4.6}{34}{Chute Oscillations}{section.4.6}{}}
\@writefile{lof}{\contentsline {figure}{\numberline {4.15}{\ignorespaces Oscillations of Avachute}}{35}{figure.caption.41}\protected@file@percent }
\newlabel{fig:resOscillation}{{4.15}{35}{Oscillations of Avachute}{figure.caption.41}{}}
\BKM@entry{id=27,dest={636861707465722E35},srcline={246}}{44697363757373696F6E}
\BKM@entry{id=28,dest={73656374696F6E2E352E31},srcline={259}}{4C696D69746174696F6E73}
\@writefile{toc}{\contentsline {chapter}{\numberline {5}Discussion}{36}{chapter.5}\protected@file@percent }
\@writefile{lof}{\addvspace {10\p@ }}
\@writefile{lot}{\addvspace {10\p@ }}
\@writefile{lol}{\addvspace {10\p@ }}
\newlabel{sec:discussion}{{5}{36}{Discussion}{chapter.5}{}}
\@writefile{toc}{\contentsline {section}{\numberline {5.1}Limitations}{36}{section.5.1}\protected@file@percent }
\newlabel{sec:discLimitations}{{5.1}{36}{Limitations}{section.5.1}{}}
\BKM@entry{id=29,dest={73656374696F6E2E352E32},srcline={291}}{56656C6F636974792050726F66696C65}
\@writefile{lot}{\contentsline {table}{\numberline {5.1}{\ignorespaces Method interpretation}}{37}{table.caption.42}\protected@file@percent }
\newlabel{tab:disCompareSens}{{5.1}{37}{Method interpretation}{table.caption.42}{}}
\citation{GerritGunther}
\BKM@entry{id=30,dest={73656374696F6E2E352E33},srcline={301}}{44657074682043616C63756C6174696F6E}
\@writefile{toc}{\contentsline {section}{\numberline {5.2}Velocity Profile}{38}{section.5.2}\protected@file@percent }
\newlabel{sec:dismethodEval}{{5.2}{38}{Velocity Profile}{section.5.2}{}}
\@writefile{toc}{\contentsline {section}{\numberline {5.3}Depth Calculation}{38}{section.5.3}\protected@file@percent }
\newlabel{sec:sti_discussion}{{5.3}{38}{Depth Calculation}{section.5.3}{}}
\BKM@entry{id=31,dest={73656374696F6E2E352E34},srcline={309}}{4772616E756C61746520496E6C6574}
\@writefile{toc}{\contentsline {section}{\numberline {5.4}Granulate Inlet}{39}{section.5.4}\protected@file@percent }
\newlabel{sec:Oscillation_discussion}{{5.4}{39}{Granulate Inlet}{section.5.4}{}}
\BKM@entry{id=32,dest={636861707465722E36},srcline={1}}{436F6E636C7573696F6E20616E64204F75746C6F6F6B}
\citation{Gunnar}
\@writefile{toc}{\contentsline {chapter}{\numberline {6}Conclusion and Outlook}{40}{chapter.6}\protected@file@percent }
\@writefile{lof}{\addvspace {10\p@ }}
\@writefile{lot}{\addvspace {10\p@ }}
\@writefile{lol}{\addvspace {10\p@ }}
\newlabel{sec:sum_outlook}{{6}{40}{Conclusion and Outlook}{chapter.6}{}}
\citation{Khler2018}
\bibstyle{IEEEtran}
\bibdata{Literatur}
\BKM@entry{id=33,dest={636861707465722A2E3433},srcline={2}}{4269626C696F677261706879}
\bibcite{IEEEexample:berti}{1}
\bibcite{Gleirscher2014}{2}
\bibcite{bertiPaper}{3}
\bibcite{Khler2018}{4}
\bibcite{GerritGunther}{5}
\bibcite{QLCp}{6}
\bibcite{Zhang2000}{7}
\bibcite{website_camcalib}{8}
\bibcite{opencv_library}{9}
\bibcite{Garrido_Jurado_2014}{10}
\@writefile{toc}{\contentsline {chapter}{\nonumberline Bibliography}{VIII}{chapter*.43}\protected@file@percent }
\@writefile{lof}{\addvspace {10\p@ }}
\@writefile{lot}{\addvspace {10\p@ }}
\@writefile{lol}{\addvspace {10\p@ }}
\bibcite{Farnebackfastandaccurate}{11}
\bibcite{Smiatacz2012}{12}
\bibcite{Farneback.1999}{13}
\bibcite{Gunnar}{14}
\bibcite{FarnebackConferencePaper}{15}
\bibcite{Bai2018}{16}
\bibcite{wagh_panse_apte_2015}{17}
\bibcite{canny1986computational}{18}
\bibcite{harris2020array}{19}
\bibcite{Rashmi2013}{20}
\BKM@entry{id=34,dest={636861707465722A2E3434},srcline={15}}{4C697374206F662046696775726573}
\@writefile{toc}{\contentsline {chapter}{List of Figures}{X}{chapter*.44}\protected@file@percent }
\BKM@entry{id=35,dest={636861707465722A2E3435},srcline={20}}{4C697374206F66205461626C6573}
\@writefile{toc}{\contentsline {chapter}{List of Tables}{XI}{chapter*.45}\protected@file@percent }
\BKM@entry{id=36,dest={636861707465722A2E3436},srcline={24}}{4C697374206F662053796D626F6C73}
\@writefile{toc}{\contentsline {chapter}{\nonumberline List of Symbols}{XII}{chapter*.46}\protected@file@percent }
\@writefile{lof}{\addvspace {10\p@ }}
\@writefile{lot}{\addvspace {10\p@ }}
\@writefile{lol}{\addvspace {10\p@ }}
\gdef \LT@i {\LT@entry 
    {3}{52.27345pt}\LT@entry 
    {2}{158.08176pt}\LT@entry 
    {3}{54.69046pt}}
\BKM@entry{id=37,dest={636861707465722A2E3437},srcline={103}}{416262726576696174696F6E73}
\@writefile{toc}{\contentsline {chapter}{\nonumberline Abbreviations}{XIV}{chapter*.47}\protected@file@percent }
\@writefile{lof}{\addvspace {10\p@ }}
\@writefile{lot}{\addvspace {10\p@ }}
\@writefile{lol}{\addvspace {10\p@ }}
\BKM@entry{id=38,dest={617070656E6469782E41},srcline={1}}{496D6167652073657175656E6365206F66204578706572696D656E74}
\@writefile{toc}{\contentsline {chapter}{\numberline {A}Image sequence of Experiment}{XV}{appendix.A}\protected@file@percent }
\@writefile{lof}{\addvspace {10\p@ }}
\@writefile{lot}{\addvspace {10\p@ }}
\@writefile{lol}{\addvspace {10\p@ }}
\newlabel{app:imageSequence}{{A}{XV}{Image sequence of Experiment}{appendix.A}{}}
\@writefile{lof}{\contentsline {figure}{\numberline {A.1}{\ignorespaces Image sequence of Experiment 5.}}{XV}{figure.caption.48}\protected@file@percent }
\newlabel{fig:imgSeq}{{A.1}{XV}{Image sequence of Experiment 5}{figure.caption.48}{}}
\BKM@entry{id=39,dest={617070656E6469782E42},srcline={1}}{53747275637475726564204C6967687420496C6C756D696E6174696F6E20436F6465}
\@writefile{toc}{\contentsline {chapter}{\numberline {B}Structured Light Illumination Code}{XVI}{appendix.B}\protected@file@percent }
\@writefile{lof}{\addvspace {10\p@ }}
\@writefile{lot}{\addvspace {10\p@ }}
\@writefile{lol}{\addvspace {10\p@ }}
\newlabel{sec:code}{{B}{XVI}{Structured Light Illumination Code}{appendix.B}{}}
\newlabel{lst:codeSLI}{{B.1}{XVI}{In this code the laser line gets extracted from the images. Several methods are therefore developed to find the optimum}{lstlisting.B.1}{}}
\@writefile{lol}{\contentsline {lstlisting}{\numberline {B.1}In this code the laser line gets extracted from the images. Several methods are therefore developed to find the optimum.}{XVI}{lstlisting.B.1}\protected@file@percent }
\BKM@entry{id=40,dest={617070656E6469782E43},srcline={1}}{4F70746963616C20466C6F7720436F6465}
\@writefile{toc}{\contentsline {chapter}{\numberline {C}Optical Flow Code}{XX}{appendix.C}\protected@file@percent }
\@writefile{lof}{\addvspace {10\p@ }}
\@writefile{lot}{\addvspace {10\p@ }}
\@writefile{lol}{\addvspace {10\p@ }}
\newlabel{sec:of}{{C}{XX}{Optical Flow Code}{appendix.C}{}}
\newlabel{lst:codeOF}{{C.1}{XX}{The python implementation of the Optical Flow calculation is shown in this code. Here a pair of images is processed and the calculated flow is saved to a HDF5 file}{lstlisting.C.1}{}}
\@writefile{lol}{\contentsline {lstlisting}{\numberline {C.1}The python implementation of the Optical Flow calculation is shown in this code. Here a pair of images is processed and the calculated flow is saved to a HDF5 file.}{XX}{lstlisting.C.1}\protected@file@percent }
\BKM@entry{id=41,dest={617070656E6469782E44},srcline={1}}{4844462066696C652073746F7261676520436F6465}
\@writefile{toc}{\contentsline {chapter}{\numberline {D}HDF file storage Code}{XXIII}{appendix.D}\protected@file@percent }
\@writefile{lof}{\addvspace {10\p@ }}
\@writefile{lot}{\addvspace {10\p@ }}
\@writefile{lol}{\addvspace {10\p@ }}
\newlabel{sec:hdf5Storage}{{D}{XXIII}{HDF file storage Code}{appendix.D}{}}
\newlabel{lst:hdf5Storage}{{D.1}{XXIII}{Here the code to save the data to a HDF5 file is shown}{lstlisting.D.1}{}}
\@writefile{lol}{\contentsline {lstlisting}{\numberline {D.1}Here the code to save the data to a HDF5 file is shown.}{XXIII}{lstlisting.D.1}\protected@file@percent }
\global\csname @altsecnumformattrue\endcsname
\global\@namedef{scr@dte@chapter@lastmaxnumwidth}{15.32977pt}
\global\@namedef{scr@dte@section@lastmaxnumwidth}{22.64415pt}
\global\@namedef{scr@dte@table@lastmaxnumwidth}{22.64415pt}
\global\@namedef{scr@dte@figure@lastmaxnumwidth}{28.73227pt}
