This is BibTeX, Version 0.99d
Capacity: max_strings=200000, hash_size=200000, hash_prime=170003
The top-level auxiliary file: AvalancheChute.aux
Reallocating 'name_of_file' (item size: 1) to 9 items.
The style file: IEEEtran.bst
Reallocating 'name_of_file' (item size: 1) to 10 items.
Reallocating 'singl_function' (item size: 4) to 100 items.
Reallocating 'singl_function' (item size: 4) to 100 items.
Reallocating 'singl_function' (item size: 4) to 100 items.
Reallocating 'wiz_functions' (item size: 4) to 6000 items.
Reallocating 'singl_function' (item size: 4) to 100 items.
Database file #1: Literatur.bib
Warning--string name "march" is undefined
--line 99 of file Literatur.bib
Warning--I'm ignoring GerritGunther's extra "year" field
--line 101 of file Literatur.bib
-- IEEEtran.bst version 1.13 (2008/09/30) by Michael Shell.
-- http://www.michaelshell.org/tex/ieeetran/bibtex/
-- See the "IEEEtran_bst_HOWTO.pdf" manual for usage information.
Warning--empty year in Farnebackfastandaccurate

Done.
You've used 20 entries,
            4039 wiz_defined-function locations,
            968 strings with 12322 characters,
and the built_in function-call counts, 15059 in all, are:
= -- 1289
> -- 350
< -- 114
+ -- 190
- -- 64
* -- 752
:= -- 2432
add.period$ -- 42
call.type$ -- 20
change.case$ -- 21
chr.to.int$ -- 249
cite$ -- 21
duplicate$ -- 1075
empty$ -- 1116
format.name$ -- 75
if$ -- 3390
int.to.chr$ -- 0
int.to.str$ -- 20
missing$ -- 196
newline$ -- 111
num.names$ -- 22
pop$ -- 405
preamble$ -- 1
purify$ -- 0
quote$ -- 2
skip$ -- 1165
stack$ -- 0
substring$ -- 625
swap$ -- 912
text.length$ -- 31
text.prefix$ -- 0
top$ -- 5
type$ -- 20
warning$ -- 1
while$ -- 63
width$ -- 22
write$ -- 258
(There were 3 warnings)
